ahb_lite/ahb_lite.sim/sim_1/behav/xsim/wave.vcd
$date
   Tue Mar 12 16:12:26 2024
$end
$version
  2018.3
$end
$timescale
  1ps
$end
$scope module top $end
$var reg 1 ! HRESETn $end
$var reg 1 " HCLK $end
$var wire 1 # M_HBUSREQ $end
$var wire 1 $ M_HGRANT $end
$var wire 32 % M_HADDR [31:0] $end
$var wire 4 & M_HPROT [3:0] $end
$var wire 1 ' M_HLOCK $end
$var wire 2 ( M_HTRANS [1:0] $end
$var wire 1 ) M_HWRITE $end
$var wire 3 * M_HSIZE [2:0] $end
$var wire 3 + M_HBURST [2:0] $end
$var wire 32 , M_HWDATA [31:0] $end
$var wire 1 - M_HREADY $end
$var wire 32 . M_HRDATA [31:0] $end
$var wire 2 / M_HRESP [1:0] $end
$var wire 32 0 S_HADDR [31:0] $end
$var wire 4 1 S_HPROT [3:0] $end
$var wire 2 2 S_HTRANS [1:0] $end
$var wire 1 3 S_HWRITE $end
$var wire 3 4 S_HSIZE [2:0] $end
$var wire 3 5 S_HBURST [2:0] $end
$var wire 32 6 S_HWDATA [31:0] $end
$var wire 1 7 S_HREADY $end
$var real 32 8 stamp_x $end
$var real 32 9 stamp_y $end
$var real 32 : delta $end
$var parameter 32 ; SIZE_IN_BYTES [31:0] $end
$var parameter 32 < DELAY [31:0] $end
$var parameter 32 = CLK_FREQ [31:0] $end
$var parameter 32 > CLK_PERIOD_HALF [31:0] $end
$scope module u_bfm_ahb $end
$var wire 1 ? HRESETn $end
$var wire 1 @ HCLK $end
$var reg 1 A HBUSREQ $end
$var wire 1 $ HGRANT $end
$var reg 32 B HADDR [31:0] $end
$var reg 4 C HPROT [3:0] $end
$var reg 1 D HLOCK $end
$var reg 2 E HTRANS [1:0] $end
$var reg 1 F HWRITE $end
$var reg 3 G HSIZE [2:0] $end
$var reg 3 H HBURST [2:0] $end
$var reg 32 I HWDATA [31:0] $end
$var wire 32 . HRDATA [31:0] $end
$var wire 2 / HRESP [1:0] $end
$var wire 1 - HREADY $end
$var wire 1 J IRQ $end
$var parameter 32 K START_ADDR [31:0] $end
$var parameter 32 L DEPTH_IN_BYTES [31:0] $end
$var parameter 32 M END_ADDR [31:0] $end
$scope task memory_test $end
$var reg 32 N start [31:0] $end
$var reg 32 O finish [31:0] $end
$var reg 3 P size [2:0] $end
$var integer 32 Q i $end
$var integer 32 R error $end
$var reg 32 S data [31:0] $end
$var reg 32 T gen [31:0] $end
$var reg 32 U got [31:0] $end
$upscope $end
$scope task memory_test_burst $end
$var reg 32 V start [31:0] $end
$var reg 32 W finish [31:0] $end
$var reg 8 X leng [7:0] $end
$var integer 32 Y i $end
$var integer 32 Z j $end
$var integer 32 [ k $end
$var integer 32 \ r $end
$var integer 32 ] error $end
$var reg 32 ^ data [31:0] $end
$var reg 32 _ gen [31:0] $end
$var reg 32 ` got [31:0] $end
$var integer 32 a seed $end
$upscope $end
$scope function align $end
$var reg 32 b align [31:0] $end
$var reg 2 c addr [1:0] $end
$var reg 32 d data [31:0] $end
$var reg 3 e size [2:0] $end
$upscope $end
$scope task ahb_read $end
$var reg 32 f address [31:0] $end
$var reg 3 g size [2:0] $end
$var reg 32 h data [31:0] $end
$upscope $end
$scope task ahb_write $end
$var reg 32 i address [31:0] $end
$var reg 3 j size [2:0] $end
$var reg 32 k data [31:0] $end
$upscope $end
$scope task ahb_read_burst $end
$var reg 32 l addr [31:0] $end
$var reg 32 m leng [31:0] $end
$var integer 32 n i $end
$upscope $end
$scope task ahb_write_burst $end
$var reg 32 o addr [31:0] $end
$var reg 32 p leng [31:0] $end
$var integer 32 q i $end
$upscope $end
$upscope $end
$scope module u_ahb_lite $end
$var wire 1 r HRESETn $end
$var wire 1 s HCLK $end
$var wire 32 % M_HADDR [31:0] $end
$var wire 2 ( M_HTRANS [1:0] $end
$var wire 1 ) M_HWRITE $end
$var wire 3 * M_HSIZE [2:0] $end
$var wire 3 + M_HBURST [2:0] $end
$var wire 4 & M_HPROT [3:0] $end
$var wire 32 , M_HWDATA [31:0] $end
$var wire 32 . M_HRDATA [31:0] $end
$var wire 2 / M_HRESP [1:0] $end
$var wire 1 - M_HREADY $end
$var wire 1 3 HWRITE $end
$var wire 32 0 HADDR [31:0] $end
$var wire 2 2 HTRANS [1:0] $end
$var wire 3 4 HSIZE [2:0] $end
$var wire 3 5 HBURST [2:0] $end
$var wire 4 1 HPROT [3:0] $end
$var wire 32 6 HWDATA [31:0] $end
$var wire 1 7 HREADY $end
$var wire 1 t HSEL0 $end
$var wire 2 u HRESP0 [1:0] $end
$var wire 32 v HRDATA0 [31:0] $end
$var wire 1 w HREADY0 $end
$var wire 1 x HSEL1 $end
$var wire 2 y HRESP1 [1:0] $end
$var wire 32 z HRDATA1 [31:0] $end
$var wire 1 { HREADY1 $end
$var wire 1 | HSEL2 $end
$var wire 2 } HRESP2 [1:0] $end
$var wire 32 ~ HRDATA2 [31:0] $end
$var wire 1 !! HREADY2 $end
$var wire 1 "! REMAP $end
$var wire 1 #! HSELd $end
$var wire 32 $! HRDATAd [31:0] $end
$var wire 2 %! HRESPd [1:0] $end
$var wire 1 &! HREADYd $end
$var parameter 16 '! P_HSEL0_START [15:0] $end
$var parameter 16 (! P_HSEL0_SIZE [15:0] $end
$var parameter 16 )! P_HSEL1_START [15:0] $end
$var parameter 16 *! P_HSEL1_SIZE [15:0] $end
$var parameter 16 +! P_HSEL2_START [15:0] $end
$var parameter 16 ,! P_HSEL2_SIZE [15:0] $end
$scope module Uahb_decoder $end
$var wire 32 % HADDR [31:0] $end
$var wire 1 #! HSELd $end
$var wire 1 t HSEL0 $end
$var wire 1 x HSEL1 $end
$var wire 1 | HSEL2 $end
$var wire 1 "! REMAP $end
$var reg 1 -! ihseld $end
$var reg 1 .! ihsel0 $end
$var reg 1 /! ihsel1 $end
$var reg 1 0! ihsel2 $end
$var wire 16 1! thaddr [15:0] $end
$var parameter 32 2! P_NUM [31:0] $end
$var parameter 16 3! P_ADDR_START0 [15:0] $end
$var parameter 16 4! P_ADDR_SIZE0 [15:0] $end
$var parameter 16 5! P_ADDR_START1 [15:0] $end
$var parameter 16 6! P_ADDR_SIZE1 [15:0] $end
$var parameter 16 7! P_ADDR_START2 [15:0] $end
$var parameter 16 8! P_ADDR_SIZE2 [15:0] $end
$var parameter 32 9! P_ADDR_END0 [31:0] $end
$var parameter 32 :! P_ADDR_END1 [31:0] $end
$var parameter 32 ;! P_ADDR_END2 [31:0] $end
$upscope $end
$scope module Uahb_s2m $end
$var wire 1 r HRESETn $end
$var wire 1 s HCLK $end
$var wire 1 t HSEL0 $end
$var wire 1 x HSEL1 $end
$var wire 1 | HSEL2 $end
$var wire 1 #! HSELd $end
$var reg 32 <! HRDATA [31:0] $end
$var reg 2 =! HRESP [1:0] $end
$var reg 1 >! HREADY $end
$var wire 32 v HRDATA0 [31:0] $end
$var wire 2 u HRESP0 [1:0] $end
$var wire 1 w HREADY0 $end
$var wire 32 z HRDATA1 [31:0] $end
$var wire 2 y HRESP1 [1:0] $end
$var wire 1 { HREADY1 $end
$var wire 32 ~ HRDATA2 [31:0] $end
$var wire 2 } HRESP2 [1:0] $end
$var wire 1 !! HREADY2 $end
$var wire 32 $! HRDATAd [31:0] $end
$var wire 2 %! HRESPd [1:0] $end
$var wire 1 &! HREADYd $end
$var wire 4 ?! _hsel [3:0] $end
$var reg 4 @! _hsel_reg [3:0] $end
$var parameter 4 A! D_HSEL0 [3:0] $end
$var parameter 4 B! D_HSEL1 [3:0] $end
$var parameter 4 C! D_HSEL2 [3:0] $end
$var parameter 4 D! D_HSELd [3:0] $end
$upscope $end
$scope module Uahb_default_slave $end
$var wire 1 r HRESETn $end
$var wire 1 s HCLK $end
$var wire 1 #! HSEL $end
$var wire 32 0 HADDR [31:0] $end
$var wire 2 2 HTRANS [1:0] $end
$var wire 1 3 HWRITE $end
$var wire 3 4 HSIZE [2:0] $end
$var wire 3 5 HBURST [2:0] $end
$var wire 32 6 HWDATA [31:0] $end
$var wire 32 $! HRDATA [31:0] $end
$var reg 2 E! HRESP [1:0] $end
$var wire 1 7 HREADYin $end
$var reg 1 F! HREADYout $end
$var reg 2 G! state [1:0] $end
$var parameter 2 H! STH_IDLE [1:0] $end
$var parameter 2 I! STH_WRITE [1:0] $end
$var parameter 2 J! STH_READ0 [1:0] $end
$upscope $end
$upscope $end
$scope module BM_BLK[0].u_mem_ahb $end
$var wire 1 K! HRESETn $end
$var wire 1 L! HCLK $end
$var wire 1 t HSEL $end
$var wire 32 0 HADDR [31:0] $end
$var wire 2 2 HTRANS [1:0] $end
$var wire 1 3 HWRITE $end
$var wire 3 4 HSIZE [2:0] $end
$var wire 3 5 HBURST [2:0] $end
$var wire 32 6 HWDATA [31:0] $end
$var reg 32 M! HRDATA [31:0] $end
$var wire 2 u HRESP [1:0] $end
$var wire 1 7 HREADYin $end
$var reg 1 N! HREADYout $end
$var reg 10 O! T_ADDR [9:0] $end
$var reg 10 P! T_ADDRw [9:0] $end
$var reg 32 Q! T_DATA [31:0] $end
$var reg 4 R! T_BE [3:0] $end
$var reg 4 S! T_BE_D [3:0] $end
$var reg 1 T! T_WR $end
$var reg 1 U! T_WR_D $end
$var wire 1 V! T_ENABLED $end
$var reg 6 W! count [5:0] $end
$var reg 1 X! state $end
$var integer 32 Y! xxy $end
$var parameter 32 Z! SIZE_IN_BYTES [31:0] $end
$var parameter 32 [! DELAY [31:0] $end
$var parameter 32 \! INIT [31:0] $end
$var parameter 32 ]! ADD_WIDTH [31:0] $end
$var parameter 32 ^! NUM_WORDS [31:0] $end
$var parameter 32 _! IDLE [31:0] $end
$var parameter 32 `! WAIT [31:0] $end
$scope function byte_enable $end
$var reg 4 a! byte_enable [3:0] $end
$var reg 2 b! add [1:0] $end
$var reg 3 c! size [2:0] $end
$var reg 4 d! be [3:0] $end
$upscope $end
$upscope $end
$scope module BM_BLK[1].u_mem_ahb $end
$var wire 1 e! HRESETn $end
$var wire 1 f! HCLK $end
$var wire 1 x HSEL $end
$var wire 32 0 HADDR [31:0] $end
$var wire 2 2 HTRANS [1:0] $end
$var wire 1 3 HWRITE $end
$var wire 3 4 HSIZE [2:0] $end
$var wire 3 5 HBURST [2:0] $end
$var wire 32 6 HWDATA [31:0] $end
$var reg 32 g! HRDATA [31:0] $end
$var wire 2 y HRESP [1:0] $end
$var wire 1 7 HREADYin $end
$var reg 1 h! HREADYout $end
$var reg 10 i! T_ADDR [9:0] $end
$var reg 10 j! T_ADDRw [9:0] $end
$var reg 32 k! T_DATA [31:0] $end
$var reg 4 l! T_BE [3:0] $end
$var reg 4 m! T_BE_D [3:0] $end
$var reg 1 n! T_WR $end
$var reg 1 o! T_WR_D $end
$var wire 1 p! T_ENABLED $end
$var reg 6 q! count [5:0] $end
$var reg 1 r! state $end
$var integer 32 s! xxy $end
$var parameter 32 t! SIZE_IN_BYTES [31:0] $end
$var parameter 32 u! DELAY [31:0] $end
$var parameter 32 v! INIT [31:0] $end
$var parameter 32 w! ADD_WIDTH [31:0] $end
$var parameter 32 x! NUM_WORDS [31:0] $end
$var parameter 32 y! IDLE [31:0] $end
$var parameter 32 z! WAIT [31:0] $end
$scope function byte_enable $end
$var reg 4 {! byte_enable [3:0] $end
$var reg 2 |! add [1:0] $end
$var reg 3 }! size [2:0] $end
$var reg 4 ~! be [3:0] $end
$upscope $end
$upscope $end
$scope module BM_BLK[2].u_mem_ahb $end
$var wire 1 !" HRESETn $end
$var wire 1 "" HCLK $end
$var wire 1 | HSEL $end
$var wire 32 0 HADDR [31:0] $end
$var wire 2 2 HTRANS [1:0] $end
$var wire 1 3 HWRITE $end
$var wire 3 4 HSIZE [2:0] $end
$var wire 3 5 HBURST [2:0] $end
$var wire 32 6 HWDATA [31:0] $end
$var reg 32 #" HRDATA [31:0] $end
$var wire 2 } HRESP [1:0] $end
$var wire 1 7 HREADYin $end
$var reg 1 $" HREADYout $end
$var reg 10 %" T_ADDR [9:0] $end
$var reg 10 &" T_ADDRw [9:0] $end
$var reg 32 '" T_DATA [31:0] $end
$var reg 4 (" T_BE [3:0] $end
$var reg 4 )" T_BE_D [3:0] $end
$var reg 1 *" T_WR $end
$var reg 1 +" T_WR_D $end
$var wire 1 ," T_ENABLED $end
$var reg 6 -" count [5:0] $end
$var reg 1 ." state $end
$var integer 32 /" xxy $end
$var parameter 32 0" SIZE_IN_BYTES [31:0] $end
$var parameter 32 1" DELAY [31:0] $end
$var parameter 32 2" INIT [31:0] $end
$var parameter 32 3" ADD_WIDTH [31:0] $end
$var parameter 32 4" NUM_WORDS [31:0] $end
$var parameter 32 5" IDLE [31:0] $end
$var parameter 32 6" WAIT [31:0] $end
$scope function byte_enable $end
$var reg 4 7" byte_enable [3:0] $end
$var reg 2 8" add [1:0] $end
$var reg 3 9" size [2:0] $end
$var reg 4 :" be [3:0] $end
$upscope $end
$upscope $end
$upscope $end
$enddefinitions $end
#0
$dumpvars
0!
1!!
0!"
0"
0"!
0""
0#
0#!
bx #"
0$
b0 $!
1$"
b0 %
b0 %!
bx %"
b0 &
1&!
bx &"
0'
b0 '!
bx '"
b0 (
b100000000 (!
bx ("
0)
b1000000000000 )!
bx )"
b0 *
b100000000 *!
x*"
b0 +
b10000000000000 +!
x+"
b0 ,
b100000000 ,!
0,"
1-
0-!
b0 -"
b0 .
1.!
0."
b1 /
0/!
bx /"
b0 0
00!
b10000000000 0"
b0 1
b0 1!
b1 1"
b0 2
b11 2!
b0 2"
03
b0 3!
b1010 3"
b0 4
b100000000 4!
b100000000 4"
b0 5
b1000000000000 5!
b0 5"
b0 6
b100000000 6!
b1 6"
17
b10000000000000 7!
bx 7"
r0 8
b100000000 8!
bx 8"
r0 9
b11111111 9!
bx 9"
r0 :
b1000011111111 :!
bx :"
b10000000000 ;
b10000011111111 ;!
b1 <
b0 <!
b10111110101111000010000000 =
b1 =!
b1010 >
1>!
0?
b1 ?!
0@
b0 @!
0A
b1 A!
b0 B
b10 B!
b0 C
b100 C!
0D
b1000 D!
b0 E
b0 E!
0F
1F!
b0 G
b0 G!
b0 H
b0 H!
b0 I
b1 I!
0J
b10 J!
b0 K
0K!
b100000000 L
0L!
b11111111 M
bx M!
bx N
1N!
bx O
bx O!
bx P
bx P!
bx Q
bx Q!
bx R
bx R!
bx S
bx S!
bx T
xT!
bx U
xU!
bx V
0V!
bx W
b0 W!
bx X
0X!
bx Y
bx Y!
bx Z
b10000000000 Z!
bx [
b1 [!
bx \
b0 \!
bx ]
b1010 ]!
bx ^
b100000000 ^!
bx _
b0 _!
bx `
b1 `!
bx a
bx a!
bx b
bx b!
bx c
bx c!
bx d
bx d!
bx e
0e!
bx f
0f!
bx g
bx g!
bx h
1h!
bx i
bx i!
bx j
bx j!
bx k
bx k!
bx l
bx l!
bx m
bx m!
bx n
xn!
bx o
xo!
bx p
0p!
bx q
b0 q!
0r
0r!
0s
bx s!
1t
b10000000000 t!
b0 u
b1 u!
bx v
b0 v!
1w
b1010 w!
0x
b100000000 x!
b0 y
b0 y!
bx z
b1 z!
1{
bx {!
0|
bx |!
b0 }
bx }!
bx ~
bx ~!
$end
#1000
b11111111111111111111111111111111 #"
b1111111111 %"
b1111111111 &"
b11111111111111111111111111111111 '"
b0 ("
b0 )"
0*"
0+"
b0 <!
b11111111111111111111111111111111 M!
b1111111111 O!
b1111111111 P!
b11111111111111111111111111111111 Q!
b0 R!
b0 S!
0T!
0U!
b11111111111111111111111111111111 g!
b1111111111 i!
b1111111111 j!
b11111111111111111111111111111111 k!
b0 l!
b0 m!
0n!
0o!
b11111111111111111111111111111111 v
b11111111111111111111111111111111 z
b11111111111111111111111111111111 ~
#10000
1"
1""
1$"
b0 -"
0."
1@
b0 @!
b0 E!
1F!
b0 G!
1L!
1N!
b0 W!
0X!
1f!
1h!
b0 q!
0r!
1s
#11000
b11111111111111111111111111111111 #"
b1111111111 %"
b1111111111 &"
b11111111111111111111111111111111 '"
b0 ("
b0 )"
0*"
0+"
b11111111111111111111111111111111 M!
b1111111111 O!
b1111111111 P!
b11111111111111111111111111111111 Q!
b0 R!
b0 S!
0T!
0U!
b11111111111111111111111111111111 g!
b1111111111 i!
b1111111111 j!
b11111111111111111111111111111111 k!
b0 l!
b0 m!
0n!
0o!
#20000
0"
0""
0@
0L!
0f!
0s
#30000
1"
1""
1$"
b0 -"
0."
1@
b0 @!
b0 E!
1F!
b0 G!
1L!
1N!
b0 W!
0X!
1f!
1h!
b0 q!
0r!
1s
#31000
b11111111111111111111111111111111 #"
b1111111111 %"
b1111111111 &"
b11111111111111111111111111111111 '"
b0 ("
b0 )"
0*"
0+"
b11111111111111111111111111111111 M!
b1111111111 O!
b1111111111 P!
b11111111111111111111111111111111 Q!
b0 R!
b0 S!
0T!
0U!
b11111111111111111111111111111111 g!
b1111111111 i!
b1111111111 j!
b11111111111111111111111111111111 k!
b0 l!
b0 m!
0n!
0o!
#40000
0"
0""
0@
0L!
0f!
0s
#50000
1"
1""
1$"
b0 -"
0."
1@
b0 @!
b0 E!
1F!
b0 G!
1L!
1N!
b0 W!
0X!
1f!
1h!
b0 q!
0r!
1s
#51000
b11111111111111111111111111111111 #"
b1111111111 %"
b1111111111 &"
b11111111111111111111111111111111 '"
b0 ("
b0 )"
0*"
0+"
b11111111111111111111111111111111 M!
b1111111111 O!
b1111111111 P!
b11111111111111111111111111111111 Q!
b0 R!
b0 S!
0T!
0U!
b11111111111111111111111111111111 g!
b1111111111 i!
b1111111111 j!
b11111111111111111111111111111111 k!
b0 l!
b0 m!
0n!
0o!
#60000
0"
0""
0@
0L!
0f!
0s
#70000
1"
1""
1$"
b0 -"
0."
1@
b0 @!
b0 E!
1F!
b0 G!
1L!
1N!
b0 W!
0X!
1f!
1h!
b0 q!
0r!
1s
#71000
b11111111111111111111111111111111 #"
b1111111111 %"
b1111111111 &"
b11111111111111111111111111111111 '"
b0 ("
b0 )"
0*"
0+"
b11111111111111111111111111111111 M!
b1111111111 O!
b1111111111 P!
b11111111111111111111111111111111 Q!
b0 R!
b0 S!
0T!
0U!
b11111111111111111111111111111111 g!
b1111111111 i!
b1111111111 j!
b11111111111111111111111111111111 k!
b0 l!
b0 m!
0n!
0o!
#80000
0"
0""
0@
0L!
0f!
0s
#90000
1"
1""
1$"
b0 -"
0."
1@
b0 @!
b0 E!
1F!
b0 G!
1L!
1N!
b0 W!
0X!
1f!
1h!
b0 q!
0r!
1s
#91000
b11111111111111111111111111111111 #"
b1111111111 %"
b1111111111 &"
b11111111111111111111111111111111 '"
b0 ("
b0 )"
0*"
0+"
b11111111111111111111111111111111 M!
b1111111111 O!
b1111111111 P!
b11111111111111111111111111111111 Q!
b0 R!
b0 S!
0T!
0U!
b11111111111111111111111111111111 g!
b1111111111 i!
b1111111111 j!
b11111111111111111111111111111111 k!
b0 l!
b0 m!
0n!
0o!
#100000
0"
0""
0@
0L!
0f!
0s
#110000
1"
1""
1$"
b0 -"
0."
1@
b0 @!
b0 E!
1F!
b0 G!
1L!
1N!
b0 W!
0X!
1f!
1h!
b0 q!
0r!
1s
#111000
b11111111111111111111111111111111 #"
b1111111111 %"
b1111111111 &"
b11111111111111111111111111111111 '"
b0 ("
b0 )"
0*"
0+"
b11111111111111111111111111111111 M!
b1111111111 O!
b1111111111 P!
b11111111111111111111111111111111 Q!
b0 R!
b0 S!
0T!
0U!
b11111111111111111111111111111111 g!
b1111111111 i!
b1111111111 j!
b11111111111111111111111111111111 k!
b0 l!
b0 m!
0n!
0o!
#120000
0"
0""
0@
0L!
0f!
0s
#130000
1"
1""
1$"
b0 -"
0."
r130 8
1@
b0 @!
b0 E!
1F!
b0 G!
1L!
1N!
b0 W!
0X!
1f!
1h!
b0 q!
0r!
1s
#131000
b11111111111111111111111111111111 #"
b1111111111 %"
b1111111111 &"
b11111111111111111111111111111111 '"
b0 ("
b0 )"
0*"
0+"
b11111111111111111111111111111111 M!
b1111111111 O!
b1111111111 P!
b11111111111111111111111111111111 Q!
b0 R!
b0 S!
0T!
0U!
b11111111111111111111111111111111 g!
b1111111111 i!
b1111111111 j!
b11111111111111111111111111111111 k!
b0 l!
b0 m!
0n!
0o!
#140000
0"
0""
0@
0L!
0f!
0s
#150000
1"
1""
1$"
b0 -"
0."
r150 9
r20 :
1@
b0 @!
b0 E!
1F!
b0 G!
1L!
1N!
b0 W!
0X!
1f!
1h!
b0 q!
0r!
1s
#151000
b11111111111111111111111111111111 #"
b1111111111 %"
b1111111111 &"
b11111111111111111111111111111111 '"
b0 ("
b0 )"
0*"
0+"
b11111111111111111111111111111111 M!
b1111111111 O!
b1111111111 P!
b11111111111111111111111111111111 Q!
b0 R!
b0 S!
0T!
0U!
b11111111111111111111111111111111 g!
b1111111111 i!
b1111111111 j!
b11111111111111111111111111111111 k!
b0 l!
b0 m!
0n!
0o!
#160000
0"
0""
0@
0L!
0f!
0s
#170000
1"
1""
1$"
b0 -"
0."
1@
b0 @!
b0 E!
1F!
b0 G!
1L!
1N!
b0 W!
0X!
1f!
1h!
b0 q!
0r!
1s
#171000
b11111111111111111111111111111111 #"
b1111111111 %"
b1111111111 &"
b11111111111111111111111111111111 '"
b0 ("
b0 )"
0*"
0+"
b11111111111111111111111111111111 M!
b1111111111 O!
b1111111111 P!
b11111111111111111111111111111111 Q!
b0 R!
b0 S!
0T!
0U!
b11111111111111111111111111111111 g!
b1111111111 i!
b1111111111 j!
b11111111111111111111111111111111 k!
b0 l!
b0 m!
0n!
0o!
#180000
0"
0""
0@
0L!
0f!
0s
#190000
1"
1""
1$"
b0 -"
0."
1@
b0 @!
b0 E!
1F!
b0 G!
1L!
1N!
b0 W!
0X!
1f!
1h!
b0 q!
0r!
1s
#191000
b11111111111111111111111111111111 #"
b1111111111 %"
b1111111111 &"
b11111111111111111111111111111111 '"
b0 ("
b0 )"
0*"
0+"
b11111111111111111111111111111111 M!
b1111111111 O!
b1111111111 P!
b11111111111111111111111111111111 Q!
b0 R!
b0 S!
0T!
0U!
b11111111111111111111111111111111 g!
b1111111111 i!
b1111111111 j!
b11111111111111111111111111111111 k!
b0 l!
b0 m!
0n!
0o!
#200000
0"
0""
0@
0L!
0f!
0s
#210000
1"
1""
1$"
b0 -"
0."
1@
b0 @!
b0 E!
1F!
b0 G!
1L!
1N!
b0 W!
0X!
1f!
1h!
b0 q!
0r!
1s
#211000
b11111111111111111111111111111111 #"
b1111111111 %"
b1111111111 &"
b11111111111111111111111111111111 '"
b0 ("
b0 )"
0*"
0+"
b11111111111111111111111111111111 M!
b1111111111 O!
b1111111111 P!
b11111111111111111111111111111111 Q!
b0 R!
b0 S!
0T!
0U!
b11111111111111111111111111111111 g!
b1111111111 i!
b1111111111 j!
b11111111111111111111111111111111 k!
b0 l!
b0 m!
0n!
0o!
#220000
0"
0""
0@
0L!
0f!
0s
#230000
1"
1""
1$"
b0 -"
0."
1@
b0 @!
b0 E!
1F!
b0 G!
1L!
1N!
b0 W!
0X!
1f!
1h!
b0 q!
0r!
1s
#231000
b11111111111111111111111111111111 #"
b1111111111 %"
b1111111111 &"
b11111111111111111111111111111111 '"
b0 ("
b0 )"
0*"
0+"
b11111111111111111111111111111111 M!
b1111111111 O!
b1111111111 P!
b11111111111111111111111111111111 Q!
b0 R!
b0 S!
0T!
0U!
b11111111111111111111111111111111 g!
b1111111111 i!
b1111111111 j!
b11111111111111111111111111111111 k!
b0 l!
b0 m!
0n!
0o!
#240000
0"
0""
0@
0L!
0f!
0s
#250000
1!
1!"
1"
1""
1$"
b0 -"
0."
1?
1@
b0 @!
b0 E!
1F!
b0 G!
1K!
1L!
1N!
b0 W!
0X!
1e!
1f!
1h!
b0 q!
1r
0r!
1s
#251000
b11111111111111111111111111111111 #"
b1111111111 %"
b1111111111 &"
b11111111111111111111111111111111 '"
b0 ("
b0 )"
0*"
0+"
b11111111111111111111111111111111 M!
b1111111111 O!
b1111111111 P!
b11111111111111111111111111111111 Q!
b0 R!
b0 S!
0T!
0U!
b11111111111111111111111111111111 g!
b1111111111 i!
b1111111111 j!
b11111111111111111111111111111111 k!
b0 l!
b0 m!
0n!
0o!
#260000
0"
0""
0@
0L!
0f!
0s
#270000
1"
1""
b11111111111111111111111111111111 .
b0 /
b11111111111111111111111111111111 <!
b0 =!
1>!
1@
b1 @!
b0 E!
1F!
1L!
1f!
1s
#271000
b1111111111 &"
b0 ("
b0 )"
0*"
0+"
b1111111111 P!
b0 R!
b0 S!
0T!
0U!
b1111111111 j!
b0 l!
b0 m!
0n!
0o!
#280000
0"
0""
0@
0L!
0f!
0s
#290000
1"
1""
1@
b1 @!
b0 E!
1F!
1L!
1f!
1s
#291000
b1111111111 &"
b0 ("
b0 )"
0*"
0+"
b1111111111 P!
b0 R!
b0 S!
0T!
0U!
b1111111111 j!
b0 l!
b0 m!
0n!
0o!
#300000
0"
0""
0@
0L!
0f!
0s
#310000
1"
1""
1@
b1 @!
b0 E!
1F!
1L!
1f!
1s
#311000
b1111111111 &"
b0 ("
b0 )"
0*"
0+"
b1111111111 P!
b0 R!
b0 S!
0T!
0U!
b1111111111 j!
b0 l!
b0 m!
0n!
0o!
#320000
0"
0""
0@
0L!
0f!
0s
#330000
1"
1""
1@
b1 @!
b0 E!
1F!
1L!
b0 N
b11111111 O
b1 P
b0 Q
b0 R
b10001100 S
b1000110011011000100101110001100 T
b10001100 b
b0 c
b1000110011011000100101110001100 d
b1 e
1f!
b0 i
b1 j
b10001100 k
1s
#331000
b1111111111 &"
b0 ("
b0 )"
0*"
0+"
b1111111111 P!
b0 R!
b0 S!
0T!
0U!
b1111111111 j!
b0 l!
b0 m!
0n!
0o!
#340000
0"
0""
0@
0L!
0f!
0s
#350000
1"
1""
1@
b1 @!
b0 E!
1F!
1L!
1f!
1s
#351000
1#
1$
b1111111111 &"
b0 ("
b0 )"
0*"
0+"
1A
b1111111111 P!
b0 R!
b0 S!
0T!
0U!
b1111111111 j!
b0 l!
b0 m!
0n!
0o!
#360000
0"
0""
0@
0L!
0f!
0s
#370000
1"
1""
1@
b1 @!
b0 E!
1F!
1L!
1f!
1s
#371000
0#
0$
b1 &
b1111111111 &"
b10 (
b0 ("
1)
b0 )"
0*"
0+"
0,"
b1 1
b10 2
13
0A
b0 B
b1 C
b10 E
1F
b0 G
b0 H
b1111111111 P!
b0 R!
b0 S!
0T!
0U!
1V!
b1111111111 j!
b0 l!
b0 m!
0n!
0o!
0p!
#380000
0"
0""
0@
0L!
0f!
0s
#390000
1"
1""
1@
b1 @!
b0 E!
1F!
1L!
b1 a!
b0 b!
b0 c!
b1 d!
1f!
1s
#391000
b1111111111 &"
b0 (
b0 ("
b0 )"
0*"
0+"
b10001100 ,
0,"
0-
bx .
b0 2
b10001100 6
07
bx <!
0>!
b0 E
b10001100 I
bx M!
0N!
b0 O!
b1111111111 P!
b1 R!
b0 S!
1T!
0U!
0V!
b1 W!
1X!
b1111111111 j!
b0 l!
b0 m!
0n!
0o!
0p!
bx v
0w
#400000
0"
0""
0@
0L!
0f!
0s
#410000
1"
1""
1@
b0 E!
1F!
1L!
1f!
1s
#411000
b1111111111 &"
b0 ("
b0 )"
0*"
0+"
0,"
1-
17
1>!
1N!
b0 P!
bx10001100 Q!
b0 R!
b1 S!
0T!
1U!
0V!
b0 W!
0X!
b1111111111 j!
b0 l!
b0 m!
0n!
0o!
0p!
1w
#420000
0"
0""
0@
0L!
0f!
0s
#430000
1"
1""
1@
b1 @!
b0 E!
1F!
1L!
1f!
1s
#431000
b1111111111 &"
b0 ("
b0 )"
0*"
0+"
b0 P!
b0 R!
b0 S!
0T!
0U!
b1111111111 j!
b0 l!
b0 m!
0n!
0o!
#440000
0"
0""
0@
0L!
0f!
0s
#450000
1"
1""
1@
b1 @!
b0 E!
1F!
1L!
b0 f
1f!
b1 g
1s
#451000
b1111111111 &"
b0 ("
b0 )"
0*"
0+"
b0 P!
b0 R!
b0 S!
0T!
0U!
b1111111111 j!
b0 l!
b0 m!
0n!
0o!
#460000
0"
0""
0@
0L!
0f!
0s
#470000
1"
1""
1@
b1 @!
b0 E!
1F!
1L!
1f!
1s
#471000
1#
1$
b1111111111 &"
b0 ("
b0 )"
0*"
0+"
1A
b0 P!
b0 R!
b0 S!
0T!
0U!
b1111111111 j!
b0 l!
b0 m!
0n!
0o!
#480000
0"
0""
0@
0L!
0f!
0s
#490000
1"
1""
1@
b1 @!
b0 E!
1F!
1L!
1f!
1s
#491000
0#
0$
b1111111111 &"
b10 (
b0 ("
0)
b0 )"
0*"
0+"
0,"
b10 2
03
0A
b0 B
b1 C
b10 E
0F
b0 G
b0 H
b0 P!
b0 R!
b0 S!
0T!
0U!
1V!
b1111111111 j!
b0 l!
b0 m!
0n!
0o!
0p!
#500000
0"
0""
0@
0L!
0f!
0s
#510000
1"
1""
1@
b1 @!
b0 E!
1F!
1L!
b1 a!
b0 b!
b0 c!
b1 d!
1f!
1s
#511000
b1111111111 &"
b0 (
b0 ("
b0 )"
0*"
0+"
0,"
0-
bx10001100 .
b0 2
07
bx10001100 <!
0>!
b0 E
bx10001100 M!
0N!
b0 O!
b0 P!
b1 R!
b0 S!
0T!
0U!
0V!
b1 W!
1X!
b1111111111 j!
b0 l!
b0 m!
0n!
0o!
0p!
bx10001100 v
0w
#520000
0"
0""
0@
0L!
0f!
0s
#530000
1"
1""
1@
b0 E!
1F!
1L!
1f!
1s
#531000
b1111111111 &"
b0 ("
b0 )"
0*"
0+"
0,"
1-
17
1>!
1N!
b0 P!
b0 R!
b0 S!
0T!
0U!
0V!
b0 W!
0X!
b1111111111 j!
b0 l!
b0 m!
0n!
0o!
0p!
1w
#540000
0"
0""
0@
0L!
0f!
0s
#550000
1"
1""
1@
b1 @!
b0 E!
1F!
1L!
1f!
bx10001100 h
1s
